%YAML 1.1
%TAG !u! tag:unity3d.com,2011:
--- !u!114 &11400000
MonoBehaviour:
  m_ObjectHideFlags: 0
  m_CorrespondingSourceObject: {fileID: 0}
  m_PrefabInstance: {fileID: 0}
  m_PrefabAsset: {fileID: 0}
  m_GameObject: {fileID: 0}
  m_Enabled: 1
  m_EditorHideFlags: 0
  m_Script: {fileID: 11500000, guid: 8494db680387b443d83b4b108d190c9c, type: 3}
  m_Name: ColliderOff
  m_EditorClassIdentifier: 
  toggleOn: 0
  onCompleteEvent:
    m_PersistentCalls:
      m_Calls: []
