%YAML 1.1
%TAG !u! tag:unity3d.com,2011:
--- !u!114 &11400000
MonoBehaviour:
  m_ObjectHideFlags: 0
  m_CorrespondingSourceObject: {fileID: 0}
  m_PrefabInstance: {fileID: 0}
  m_PrefabAsset: {fileID: 0}
  m_GameObject: {fileID: 0}
  m_Enabled: 1
  m_EditorHideFlags: 0
  m_Script: {fileID: 11500000, guid: b027251185ea3034999966246e07688a, type: 3}
  m_Name: MoveObjToLeft
  m_EditorClassIdentifier: 
  duration: 0.2
  moveDirectly: 1
  moveRandom: 0
  targetOffset: {x: -5, y: 0, z: 0}
  moveX:
    serializedVersion: 2
    m_Curve: []
    m_PreInfinity: 2
    m_PostInfinity: 2
    m_RotationOrder: 4
  moveY:
    serializedVersion: 2
    m_Curve: []
    m_PreInfinity: 2
    m_PostInfinity: 2
    m_RotationOrder: 4
  moveZ:
    serializedVersion: 2
    m_Curve: []
    m_PreInfinity: 2
    m_PostInfinity: 2
    m_RotationOrder: 4
  randomX: {x: 0, y: 0}
  randomY: {x: 0, y: 0}
  randomZ: {x: 0, y: 0}
  onCompleteEvent:
    m_PersistentCalls:
      m_Calls:
      - m_Target: {fileID: 11400000, guid: e57660511b267e242b131797f25edac3, type: 2}
        m_TargetAssemblyTypeName: ScriptableSystem.ScriptableBehaviour.ScriptableToggler`1[[UnityEngine.Rigidbody,
          UnityEngine
        m_MethodName: Toggle
        m_Mode: 0
        m_Arguments:
          m_ObjectArgument: {fileID: 0}
          m_ObjectArgumentAssemblyTypeName: UnityEngine.Object, UnityEngine
          m_IntArgument: 0
          m_FloatArgument: 0
          m_StringArgument: 
          m_BoolArgument: 0
        m_CallState: 2
      - m_Target: {fileID: 11400000, guid: 840618c86adfe63499c18e0338c8d4f6, type: 2}
        m_TargetAssemblyTypeName: ScriptableSystem.ScriptableBehaviour.ScriptableDestroyer,
          Assembly-CSharp
        m_MethodName: DestroyObject
        m_Mode: 0
        m_Arguments:
          m_ObjectArgument: {fileID: 0}
          m_ObjectArgumentAssemblyTypeName: UnityEngine.Object, UnityEngine
          m_IntArgument: 0
          m_FloatArgument: 0
          m_StringArgument: 
          m_BoolArgument: 0
        m_CallState: 2
