%YAML 1.1
%TAG !u! tag:unity3d.com,2011:
--- !u!114 &11400000
MonoBehaviour:
  m_ObjectHideFlags: 0
  m_CorrespondingSourceObject: {fileID: 0}
  m_PrefabInstance: {fileID: 0}
  m_PrefabAsset: {fileID: 0}
  m_GameObject: {fileID: 0}
  m_Enabled: 1
  m_EditorHideFlags: 0
  m_Script: {fileID: 11500000, guid: 1129e25c56fe97f48a1da3318585f761, type: 3}
  m_Name: LoadTutorial
  m_EditorClassIdentifier: 
  justOnce: 1
  hasStarted: 1
  actions:
  - Action:
      m_PersistentCalls:
        m_Calls:
        - m_Target: {fileID: 11400000, guid: 5bfc5154443765845914e5d0f8c53011, type: 2}
          m_TargetAssemblyTypeName: ScriptableSystem.ScriptableSceneLoader, Assembly-CSharp
          m_MethodName: LoadScene
          m_Mode: 3
          m_Arguments:
            m_ObjectArgument: {fileID: 0}
            m_ObjectArgumentAssemblyTypeName: UnityEngine.Object, UnityEngine
            m_IntArgument: 0
            m_FloatArgument: 0
            m_StringArgument: 
            m_BoolArgument: 0
          m_CallState: 2
    DelayTime: 0
  - Action:
      m_PersistentCalls:
        m_Calls:
        - m_Target: {fileID: 11400000, guid: 2fe3359185d2deb469033125a8368888, type: 2}
          m_TargetAssemblyTypeName: ScriptableSystem.ScriptableAction, Assembly-CSharp
          m_MethodName: CallAction
          m_Mode: 1
          m_Arguments:
            m_ObjectArgument: {fileID: 0}
            m_ObjectArgumentAssemblyTypeName: UnityEngine.Object, UnityEngine
            m_IntArgument: 0
            m_FloatArgument: 0
            m_StringArgument: 
            m_BoolArgument: 0
          m_CallState: 2
    DelayTime: 5
