%YAML 1.1
%TAG !u! tag:unity3d.com,2011:
--- !u!114 &11400000
MonoBehaviour:
  m_ObjectHideFlags: 0
  m_CorrespondingSourceObject: {fileID: 0}
  m_PrefabInstance: {fileID: 0}
  m_PrefabAsset: {fileID: 0}
  m_GameObject: {fileID: 0}
  m_Enabled: 1
  m_EditorHideFlags: 0
  m_Script: {fileID: 11500000, guid: 9847d110d7bf2431385093e58553c2fe, type: 3}
  m_Name: Sword Tier 3
  m_EditorClassIdentifier: 
  Replacable: {fileID: 7130251755188199766, guid: b399df7d1376e4e2fb73852d38c0ef6b, type: 3}
