%YAML 1.1
%TAG !u! tag:unity3d.com,2011:
--- !u!29 &1
OcclusionCullingSettings:
  m_ObjectHideFlags: 0
  serializedVersion: 2
  m_OcclusionBakeSettings:
    smallestOccluder: 5
    smallestHole: 0.25
    backfaceThreshold: 100
  m_SceneGUID: 00000000000000000000000000000000
  m_OcclusionCullingData: {fileID: 0}
--- !u!104 &2
RenderSettings:
  m_ObjectHideFlags: 0
  serializedVersion: 9
  m_Fog: 0
  m_FogColor: {r: 0.5, g: 0.5, b: 0.5, a: 1}
  m_FogMode: 3
  m_FogDensity: 0.01
  m_LinearFogStart: 0
  m_LinearFogEnd: 300
  m_AmbientSkyColor: {r: 0.212, g: 0.227, b: 0.259, a: 1}
  m_AmbientEquatorColor: {r: 0.114, g: 0.125, b: 0.133, a: 1}
  m_AmbientGroundColor: {r: 0.047, g: 0.043, b: 0.035, a: 1}
  m_AmbientIntensity: 1
  m_AmbientMode: 0
  m_SubtractiveShadowColor: {r: 0.42, g: 0.478, b: 0.627, a: 1}
  m_SkyboxMaterial: {fileID: 2100000, guid: 0388ac42b41804fa6a82ea0d4919b68f, type: 2}
  m_HaloStrength: 0.5
  m_FlareStrength: 1
  m_FlareFadeSpeed: 3
  m_HaloTexture: {fileID: 0}
  m_SpotCookie: {fileID: 10001, guid: 0000000000000000e000000000000000, type: 0}
  m_DefaultReflectionMode: 0
  m_DefaultReflectionResolution: 128
  m_ReflectionBounces: 1
  m_ReflectionIntensity: 1
  m_CustomReflection: {fileID: 0}
  m_Sun: {fileID: 0}
  m_IndirectSpecularColor: {r: 0, g: 0, b: 0, a: 1}
  m_UseRadianceAmbientProbe: 0
--- !u!157 &3
LightmapSettings:
  m_ObjectHideFlags: 0
  serializedVersion: 12
  m_GIWorkflowMode: 1
  m_GISettings:
    serializedVersion: 2
    m_BounceScale: 1
    m_IndirectOutputScale: 1
    m_AlbedoBoost: 1
    m_EnvironmentLightingMode: 0
    m_EnableBakedLightmaps: 1
    m_EnableRealtimeLightmaps: 1
  m_LightmapEditorSettings:
    serializedVersion: 12
    m_Resolution: 2
    m_BakeResolution: 40
    m_AtlasSize: 1024
    m_AO: 0
    m_AOMaxDistance: 1
    m_CompAOExponent: 1
    m_CompAOExponentDirect: 0
    m_ExtractAmbientOcclusion: 0
    m_Padding: 2
    m_LightmapParameters: {fileID: 0}
    m_LightmapsBakeMode: 1
    m_TextureCompression: 1
    m_FinalGather: 0
    m_FinalGatherFiltering: 1
    m_FinalGatherRayCount: 256
    m_ReflectionCompression: 2
    m_MixedBakeMode: 2
    m_BakeBackend: 0
    m_PVRSampling: 1
    m_PVRDirectSampleCount: 32
    m_PVRSampleCount: 500
    m_PVRBounces: 2
    m_PVREnvironmentSampleCount: 500
    m_PVREnvironmentReferencePointCount: 2048
    m_PVRFilteringMode: 2
    m_PVRDenoiserTypeDirect: 0
    m_PVRDenoiserTypeIndirect: 0
    m_PVRDenoiserTypeAO: 0
    m_PVRFilterTypeDirect: 0
    m_PVRFilterTypeIndirect: 0
    m_PVRFilterTypeAO: 0
    m_PVREnvironmentMIS: 0
    m_PVRCulling: 1
    m_PVRFilteringGaussRadiusDirect: 1
    m_PVRFilteringGaussRadiusIndirect: 5
    m_PVRFilteringGaussRadiusAO: 2
    m_PVRFilteringAtrousPositionSigmaDirect: 0.5
    m_PVRFilteringAtrousPositionSigmaIndirect: 2
    m_PVRFilteringAtrousPositionSigmaAO: 1
    m_ExportTrainingData: 0
    m_TrainingDataDestination: TrainingData
    m_LightProbeSampleCountMultiplier: 4
  m_LightingDataAsset: {fileID: 0}
  m_LightingSettings: {fileID: 4890085278179872738, guid: b5bbf57d9b677354f88c54c3ca7f510e, type: 2}
--- !u!196 &4
NavMeshSettings:
  serializedVersion: 2
  m_ObjectHideFlags: 0
  m_BuildSettings:
    serializedVersion: 2
    agentTypeID: 0
    agentRadius: 0.5
    agentHeight: 2
    agentSlope: 45
    agentClimb: 0.4
    ledgeDropHeight: 0
    maxJumpAcrossDistance: 0
    minRegionArea: 2
    manualCellSize: 0
    cellSize: 0.16666667
    manualTileSize: 0
    tileSize: 256
    accuratePlacement: 0
    maxJobWorkers: 0
    preserveTilesOutsideBounds: 0
    debug:
      m_Flags: 0
  m_NavMeshData: {fileID: 0}
--- !u!1 &75961006
GameObject:
  m_ObjectHideFlags: 0
  m_CorrespondingSourceObject: {fileID: 0}
  m_PrefabInstance: {fileID: 0}
  m_PrefabAsset: {fileID: 0}
  serializedVersion: 6
  m_Component:
  - component: {fileID: 75961008}
  - component: {fileID: 75961007}
  m_Layer: 0
  m_Name: SPAWNER
  m_TagString: Untagged
  m_Icon: {fileID: 0}
  m_NavMeshLayer: 0
  m_StaticEditorFlags: 0
  m_IsActive: 1
--- !u!114 &75961007
MonoBehaviour:
  m_ObjectHideFlags: 0
  m_CorrespondingSourceObject: {fileID: 0}
  m_PrefabInstance: {fileID: 0}
  m_PrefabAsset: {fileID: 0}
  m_GameObject: {fileID: 75961006}
  m_Enabled: 1
  m_EditorHideFlags: 0
  m_Script: {fileID: 11500000, guid: a57eacd62a12043f887c96b4f69f0902, type: 3}
  m_Name: 
  m_EditorClassIdentifier: 
  tab: 0
  spawnerName: Spawner
  state: 1
  spawningBegins: 3
  autoSpawnDelay: 0.5
  spawnDuration: 3
  durationCountdown: 5
  durationRepeatXTimes: 3
  durationSpawnXInstances: 3
  frequencyMode: 0
  frequencyFixedInterval: 0.333
  frequencyRandomMin: 0.5
  frequencyRandomMax: 1.5
  instancesPerCycleMode: 0
  instancesPerCycle: 1
  minInstancesPerCycle: 1
  maxInstancesPerCycle: 2
  incrementPrefab: 0
  incrementPosition: 0
  incrementRandomOffsets: 0
  incrementRotation: 0
  incrementScale: 0
  prefabSelection: 5
  prefabs:
  - prefab: {fileID: 1503768194972696, guid: 7392b9bb77f08496e90d17a9386abb81, type: 3}
    randomWeight: 100
  - prefab: {fileID: 1503768194972696, guid: 290298ec7fd894a25ae865b9d36ab6b7, type: 3}
    randomWeight: 100
  - prefab: {fileID: 1503768194972696, guid: e27f8df64a946427cb3719d0aab3e38c, type: 3}
    randomWeight: 100
  rotationMode: 0
  customRotationEulerAngles: {x: 0, y: 0, z: 0}
  scaleMode: 3
  customLocalScale: {x: 3, y: 5, z: 2}
  customLocalScaleMin: {x: 0, y: 0, z: 0}
  customLocalScaleMax: {x: 10, y: 10, z: 10}
  customLocalScaleProportionalMin: 0
  customLocalScaleProportionalMax: 10
  reparentInstances: 0
  customParentTransform: {fileID: 0}
  prefabsWillBeSpawned: 2
  spawnPositionsAreLocalTo: 0
  spawnLocalTo: {fileID: 1037319662}
  spawnPointSelection: 0
  spawnpointTransforms:
  - spawnPoint: {fileID: 500012289}
    randomWeight: 100
  - spawnPoint: {fileID: 939953273}
    randomWeight: 100
  - spawnPoint: {fileID: 1085222125}
    randomWeight: 100
  - spawnPoint: {fileID: 554145273}
    randomWeight: 100
  spawnpointPositions:
  - spawnPoint: {x: -15, y: 0, z: 0}
    randomWeight: 100
  - spawnPoint: {x: -10, y: 7.5, z: 0}
    randomWeight: 100
  - spawnPoint: {x: 0, y: 15, z: 0}
    randomWeight: 100
  - spawnPoint: {x: 10, y: 7.5, z: 0}
    randomWeight: 100
  - spawnPoint: {x: 15, y: 0, z: 0}
    randomWeight: 100
  addSpawnPointRandomizationRange: 0
  spawnPointRandomizationRangeMin: {x: -0.5, y: -0.5, z: -0.5}
  spawnPointRandomizationRangeMax: {x: 0.5, y: 0.5, z: 0.5}
  enableSpawnerEvents: 0
  enableUnityEventSpawn: 0
  enableUnityEventStart: 0
  enableUnityEventStop: 0
  enableUnityEventPause: 0
  enableUnityEventResume: 0
  enableUnityEventEnd: 0
  OnSpawnerSpawnUnityEvent:
    m_PersistentCalls:
      m_Calls: []
  OnSpawnerStartUnityEvent:
    m_PersistentCalls:
      m_Calls: []
  OnSpawnerStopUnityEvent:
    m_PersistentCalls:
      m_Calls: []
  OnSpawnerPauseUnityEvent:
    m_PersistentCalls:
      m_Calls: []
  OnSpawnerResumeUnityEvent:
    m_PersistentCalls:
      m_Calls: []
  OnSpawnerEndUnityEvent:
    m_PersistentCalls:
      m_Calls: []
--- !u!4 &75961008
Transform:
  m_ObjectHideFlags: 0
  m_CorrespondingSourceObject: {fileID: 0}
  m_PrefabInstance: {fileID: 0}
  m_PrefabAsset: {fileID: 0}
  m_GameObject: {fileID: 75961006}
  m_LocalRotation: {x: 0, y: 0, z: 0, w: 1}
  m_LocalPosition: {x: -13.3, y: 6.2, z: 0}
  m_LocalScale: {x: 1, y: 1, z: 1}
  m_Children:
  - {fileID: 500012289}
  - {fileID: 939953273}
  - {fileID: 1085222125}
  - {fileID: 554145273}
  - {fileID: 1037319662}
  m_Father: {fileID: 0}
  m_RootOrder: 3
  m_LocalEulerAnglesHint: {x: 0, y: 0, z: 0}
--- !u!1 &134502186
GameObject:
  m_ObjectHideFlags: 0
  m_CorrespondingSourceObject: {fileID: 0}
  m_PrefabInstance: {fileID: 0}
  m_PrefabAsset: {fileID: 0}
  serializedVersion: 6
  m_Component:
  - component: {fileID: 134502188}
  - component: {fileID: 134502187}
  m_Layer: 0
  m_Name: POOLKIT SETUP
  m_TagString: Untagged
  m_Icon: {fileID: 0}
  m_NavMeshLayer: 0
  m_StaticEditorFlags: 0
  m_IsActive: 1
--- !u!114 &134502187
MonoBehaviour:
  m_ObjectHideFlags: 0
  m_CorrespondingSourceObject: {fileID: 0}
  m_PrefabInstance: {fileID: 0}
  m_PrefabAsset: {fileID: 0}
  m_GameObject: {fileID: 134502186}
  m_Enabled: 1
  m_EditorHideFlags: 0
  m_Script: {fileID: 11500000, guid: 9ee9c0d5a71744e74a24b2a96bd5e56b, type: 3}
  m_Name: 
  m_EditorClassIdentifier: 
  updatePoolKitSettings: 1
  renameObjectsInPool: 4
  onlyRenameObjectsInEditor: 0
  debugPoolKit: 0
  dontDestroyOnLoad: 0
--- !u!4 &134502188
Transform:
  m_ObjectHideFlags: 0
  m_CorrespondingSourceObject: {fileID: 0}
  m_PrefabInstance: {fileID: 0}
  m_PrefabAsset: {fileID: 0}
  m_GameObject: {fileID: 134502186}
  m_LocalRotation: {x: 0, y: 0, z: 0, w: 1}
  m_LocalPosition: {x: 0, y: 0, z: 0}
  m_LocalScale: {x: 1, y: 1, z: 1}
  m_Children: []
  m_Father: {fileID: 0}
  m_RootOrder: 1
  m_LocalEulerAnglesHint: {x: 0, y: 0, z: 0}
--- !u!1 &217715313
GameObject:
  m_ObjectHideFlags: 0
  m_CorrespondingSourceObject: {fileID: 0}
  m_PrefabInstance: {fileID: 0}
  m_PrefabAsset: {fileID: 0}
  serializedVersion: 6
  m_Component:
  - component: {fileID: 217715315}
  - component: {fileID: 217715314}
  m_Layer: 0
  m_Name: Directional Light
  m_TagString: Untagged
  m_Icon: {fileID: 0}
  m_NavMeshLayer: 0
  m_StaticEditorFlags: 0
  m_IsActive: 1
--- !u!108 &217715314
Light:
  m_ObjectHideFlags: 0
  m_CorrespondingSourceObject: {fileID: 0}
  m_PrefabInstance: {fileID: 0}
  m_PrefabAsset: {fileID: 0}
  m_GameObject: {fileID: 217715313}
  m_Enabled: 1
  serializedVersion: 10
  m_Type: 1
  m_Shape: 0
  m_Color: {r: 1, g: 0.95686275, b: 0.8392157, a: 1}
  m_Intensity: 1
  m_Range: 10
  m_SpotAngle: 30
  m_InnerSpotAngle: 21.80208
  m_CookieSize: 10
  m_Shadows:
    m_Type: 0
    m_Resolution: -1
    m_CustomResolution: -1
    m_Strength: 1
    m_Bias: 0.05
    m_NormalBias: 0.4
    m_NearPlane: 0.2
    m_CullingMatrixOverride:
      e00: 1
      e01: 0
      e02: 0
      e03: 0
      e10: 0
      e11: 1
      e12: 0
      e13: 0
      e20: 0
      e21: 0
      e22: 1
      e23: 0
      e30: 0
      e31: 0
      e32: 0
      e33: 1
    m_UseCullingMatrixOverride: 0
  m_Cookie: {fileID: 0}
  m_DrawHalo: 0
  m_Flare: {fileID: 0}
  m_RenderMode: 0
  m_CullingMask:
    serializedVersion: 2
    m_Bits: 4294967295
  m_RenderingLayerMask: 1
  m_Lightmapping: 4
  m_LightShadowCasterMode: 0
  m_AreaSize: {x: 1, y: 1}
  m_BounceIntensity: 1
  m_ColorTemperature: 6570
  m_UseColorTemperature: 0
  m_BoundingSphereOverride: {x: 0, y: 0, z: 0, w: 0}
  m_UseBoundingSphereOverride: 0
  m_UseViewFrustumForShadowCasterCull: 1
  m_ShadowRadius: 0
  m_ShadowAngle: 0
--- !u!4 &217715315
Transform:
  m_ObjectHideFlags: 0
  m_CorrespondingSourceObject: {fileID: 0}
  m_PrefabInstance: {fileID: 0}
  m_PrefabAsset: {fileID: 0}
  m_GameObject: {fileID: 217715313}
  m_LocalRotation: {x: 0.40821788, y: -0.23456968, z: 0.10938163, w: 0.8754261}
  m_LocalPosition: {x: 0, y: 3, z: 0}
  m_LocalScale: {x: 1, y: 1, z: 1}
  m_Children: []
  m_Father: {fileID: 1908726147}
  m_RootOrder: 1
  m_LocalEulerAnglesHint: {x: 50, y: -30, z: 0}
--- !u!1 &496164097
GameObject:
  m_ObjectHideFlags: 0
  m_CorrespondingSourceObject: {fileID: 0}
  m_PrefabInstance: {fileID: 0}
  m_PrefabAsset: {fileID: 0}
  serializedVersion: 6
  m_Component:
  - component: {fileID: 496164100}
  - component: {fileID: 496164099}
  - component: {fileID: 496164098}
  m_Layer: 0
  m_Name: EventSystem
  m_TagString: Untagged
  m_Icon: {fileID: 0}
  m_NavMeshLayer: 0
  m_StaticEditorFlags: 0
  m_IsActive: 1
--- !u!114 &496164098
MonoBehaviour:
  m_ObjectHideFlags: 0
  m_CorrespondingSourceObject: {fileID: 0}
  m_PrefabInstance: {fileID: 0}
  m_PrefabAsset: {fileID: 0}
  m_GameObject: {fileID: 496164097}
  m_Enabled: 1
  m_EditorHideFlags: 0
  m_Script: {fileID: 11500000, guid: 4f231c4fb786f3946a6b90b886c48677, type: 3}
  m_Name: 
  m_EditorClassIdentifier: 
  m_HorizontalAxis: Horizontal
  m_VerticalAxis: Vertical
  m_SubmitButton: Submit
  m_CancelButton: Cancel
  m_InputActionsPerSecond: 10
  m_RepeatDelay: 0.5
  m_ForceModuleActive: 0
--- !u!114 &496164099
MonoBehaviour:
  m_ObjectHideFlags: 0
  m_CorrespondingSourceObject: {fileID: 0}
  m_PrefabInstance: {fileID: 0}
  m_PrefabAsset: {fileID: 0}
  m_GameObject: {fileID: 496164097}
  m_Enabled: 1
  m_EditorHideFlags: 0
  m_Script: {fileID: 11500000, guid: 76c392e42b5098c458856cdf6ecaaaa1, type: 3}
  m_Name: 
  m_EditorClassIdentifier: 
  m_FirstSelected: {fileID: 0}
  m_sendNavigationEvents: 1
  m_DragThreshold: 5
--- !u!4 &496164100
Transform:
  m_ObjectHideFlags: 0
  m_CorrespondingSourceObject: {fileID: 0}
  m_PrefabInstance: {fileID: 0}
  m_PrefabAsset: {fileID: 0}
  m_GameObject: {fileID: 496164097}
  m_LocalRotation: {x: -0, y: -0, z: -0, w: 1}
  m_LocalPosition: {x: 0, y: 0, z: 0}
  m_LocalScale: {x: 1, y: 1, z: 1}
  m_Children: []
  m_Father: {fileID: 1908726147}
  m_RootOrder: 2
  m_LocalEulerAnglesHint: {x: 0, y: 0, z: 0}
--- !u!1 &499883989
GameObject:
  m_ObjectHideFlags: 0
  m_CorrespondingSourceObject: {fileID: 0}
  m_PrefabInstance: {fileID: 0}
  m_PrefabAsset: {fileID: 0}
  serializedVersion: 6
  m_Component:
  - component: {fileID: 499883994}
  - component: {fileID: 499883993}
  - component: {fileID: 499883991}
  - component: {fileID: 499883990}
  m_Layer: 0
  m_Name: Main Camera
  m_TagString: MainCamera
  m_Icon: {fileID: 0}
  m_NavMeshLayer: 0
  m_StaticEditorFlags: 0
  m_IsActive: 1
--- !u!81 &499883990
AudioListener:
  m_ObjectHideFlags: 0
  m_CorrespondingSourceObject: {fileID: 0}
  m_PrefabInstance: {fileID: 0}
  m_PrefabAsset: {fileID: 0}
  m_GameObject: {fileID: 499883989}
  m_Enabled: 1
--- !u!124 &499883991
Behaviour:
  m_ObjectHideFlags: 0
  m_CorrespondingSourceObject: {fileID: 0}
  m_PrefabInstance: {fileID: 0}
  m_PrefabAsset: {fileID: 0}
  m_GameObject: {fileID: 499883989}
  m_Enabled: 1
--- !u!20 &499883993
Camera:
  m_ObjectHideFlags: 0
  m_CorrespondingSourceObject: {fileID: 0}
  m_PrefabInstance: {fileID: 0}
  m_PrefabAsset: {fileID: 0}
  m_GameObject: {fileID: 499883989}
  m_Enabled: 1
  serializedVersion: 2
  m_ClearFlags: 1
  m_BackGroundColor: {r: 0.19215687, g: 0.3019608, b: 0.4745098, a: 0}
  m_projectionMatrixMode: 1
  m_GateFitMode: 2
  m_FOVAxisMode: 0
  m_SensorSize: {x: 36, y: 24}
  m_LensShift: {x: 0, y: 0}
  m_FocalLength: 50
  m_NormalizedViewPortRect:
    serializedVersion: 2
    x: 0
    y: 0
    width: 1
    height: 1
  near clip plane: 0.3
  far clip plane: 1000
  field of view: 60
  orthographic: 0
  orthographic size: 5
  m_Depth: -1
  m_CullingMask:
    serializedVersion: 2
    m_Bits: 4294967295
  m_RenderingPath: -1
  m_TargetTexture: {fileID: 0}
  m_TargetDisplay: 0
  m_TargetEye: 3
  m_HDR: 1
  m_AllowMSAA: 1
  m_AllowDynamicResolution: 0
  m_ForceIntoRT: 0
  m_OcclusionCulling: 1
  m_StereoConvergence: 10
  m_StereoSeparation: 0.022
--- !u!4 &499883994
Transform:
  m_ObjectHideFlags: 0
  m_CorrespondingSourceObject: {fileID: 0}
  m_PrefabInstance: {fileID: 0}
  m_PrefabAsset: {fileID: 0}
  m_GameObject: {fileID: 499883989}
  m_LocalRotation: {x: -0, y: -0, z: -0, w: 1}
  m_LocalPosition: {x: -14, y: 6, z: -50}
  m_LocalScale: {x: 1, y: 1, z: 1}
  m_Children: []
  m_Father: {fileID: 1908726147}
  m_RootOrder: 0
  m_LocalEulerAnglesHint: {x: 0, y: 0, z: 0}
--- !u!1 &500012288
GameObject:
  m_ObjectHideFlags: 0
  m_CorrespondingSourceObject: {fileID: 0}
  m_PrefabInstance: {fileID: 0}
  m_PrefabAsset: {fileID: 0}
  serializedVersion: 6
  m_Component:
  - component: {fileID: 500012289}
  m_Layer: 0
  m_Name: Spawn Point 1
  m_TagString: Untagged
  m_Icon: {fileID: 0}
  m_NavMeshLayer: 0
  m_StaticEditorFlags: 0
  m_IsActive: 1
--- !u!4 &500012289
Transform:
  m_ObjectHideFlags: 0
  m_CorrespondingSourceObject: {fileID: 0}
  m_PrefabInstance: {fileID: 0}
  m_PrefabAsset: {fileID: 0}
  m_GameObject: {fileID: 500012288}
  m_LocalRotation: {x: -0, y: -0, z: -0, w: 1}
  m_LocalPosition: {x: 0, y: 10, z: 0}
  m_LocalScale: {x: 1, y: 1, z: 1}
  m_Children: []
  m_Father: {fileID: 75961008}
  m_RootOrder: 0
  m_LocalEulerAnglesHint: {x: 0, y: 0, z: 0}
--- !u!1 &554145272
GameObject:
  m_ObjectHideFlags: 0
  m_CorrespondingSourceObject: {fileID: 0}
  m_PrefabInstance: {fileID: 0}
  m_PrefabAsset: {fileID: 0}
  serializedVersion: 6
  m_Component:
  - component: {fileID: 554145273}
  m_Layer: 0
  m_Name: Spawn Point 4
  m_TagString: Untagged
  m_Icon: {fileID: 0}
  m_NavMeshLayer: 0
  m_StaticEditorFlags: 0
  m_IsActive: 1
--- !u!4 &554145273
Transform:
  m_ObjectHideFlags: 0
  m_CorrespondingSourceObject: {fileID: 0}
  m_PrefabInstance: {fileID: 0}
  m_PrefabAsset: {fileID: 0}
  m_GameObject: {fileID: 554145272}
  m_LocalRotation: {x: -0, y: -0, z: -0, w: 1}
  m_LocalPosition: {x: 10, y: 0, z: 0}
  m_LocalScale: {x: 1, y: 1, z: 1}
  m_Children: []
  m_Father: {fileID: 75961008}
  m_RootOrder: 3
  m_LocalEulerAnglesHint: {x: 0, y: 0, z: 0}
--- !u!1 &626838726
GameObject:
  m_ObjectHideFlags: 0
  m_CorrespondingSourceObject: {fileID: 0}
  m_PrefabInstance: {fileID: 0}
  m_PrefabAsset: {fileID: 0}
  serializedVersion: 6
  m_Component:
  - component: {fileID: 626838728}
  - component: {fileID: 626838727}
  m_Layer: 0
  m_Name: POOL
  m_TagString: Untagged
  m_Icon: {fileID: 0}
  m_NavMeshLayer: 0
  m_StaticEditorFlags: 0
  m_IsActive: 1
--- !u!114 &626838727
MonoBehaviour:
  m_ObjectHideFlags: 0
  m_CorrespondingSourceObject: {fileID: 0}
  m_PrefabInstance: {fileID: 0}
  m_PrefabAsset: {fileID: 0}
  m_GameObject: {fileID: 626838726}
  m_Enabled: 1
  m_EditorHideFlags: 0
  m_Script: {fileID: 11500000, guid: b925f5b398e17453d97a108c188e8960, type: 3}
  m_Name: 
  m_EditorClassIdentifier: 
  poolName: Spawner Test Pool
  poolType: 2
  poolWasJustCreatedByAPI: 0
  enablePoolEvents: 1
  enablePoolProtection: 1
  dontDestroyOnLoad: 0
  poolItems:
  - prefabToPool: {fileID: 1503768194972696, guid: 7392b9bb77f08496e90d17a9386abb81, type: 3}
    poolSizeOptions: 2
    poolSize: 0
    limitPoolSize: 10
    keepOrganized: 0
    recycleSpawnedObjects: 0
    resetScaleOnEverySpawn: 0
    spawnedItemScale: 0
    customSpawnScale: {x: 1, y: 1, z: 1}
    customSpawnScaleMin: {x: 0, y: 0, z: 0}
    customSpawnScaleMax: {x: 1, y: 1, z: 1}
    customSpawnScaleProportionalMin: 0
    customSpawnScaleProportionalMax: 1
    resetLayerOnEverySpawn: 0
    spawnedItemLayer: 0
    customSpawnLayer: 0
    useLazyPreloading: 0
    lazyPreloadingInstancesOnAwake: 1
    lazyPreloadingInitialDelay: 1
    lazyPreloadingInstancesPerPass: 2
    lazyPreloadingDelayBetweenPasses: 0.2
    enableAutoDespawn: 1
    despawnMode: 0
    despawnAfterHowManySeconds: 2
    despawnRandomRangeMin: 0
    despawnRandomRangeMax: 0
    notifications: 0
    enableInstantiateDelegates: 0
    enableDestroyDelegates: 0
    maxInstancesSpawnedAtOnce: 0
    totalNumberOfSpawns: 0
    totalNumberOfDespawns: 0
    timeSincePoolLastInitializedAnInstance: 0
    timeSincePoolLastSpawnedAnInstance: 0
    timeSincePoolLastDespawnedAnInstance: 0
    tab: 3
    instanceSpawnedProgressBar: 0
    instanceSpawnedProgressBarLerped: 0
    prefabTabIsOpen: 1
  - prefabToPool: {fileID: 1503768194972696, guid: 290298ec7fd894a25ae865b9d36ab6b7, type: 3}
    poolSizeOptions: 0
    poolSize: 5
    limitPoolSize: 10
    keepOrganized: 0
    recycleSpawnedObjects: 0
    resetScaleOnEverySpawn: 0
    spawnedItemScale: 0
    customSpawnScale: {x: 1, y: 1, z: 1}
    customSpawnScaleMin: {x: 0, y: 0, z: 0}
    customSpawnScaleMax: {x: 1, y: 1, z: 1}
    customSpawnScaleProportionalMin: 0
    customSpawnScaleProportionalMax: 1
    resetLayerOnEverySpawn: 0
    spawnedItemLayer: 0
    customSpawnLayer: 0
    useLazyPreloading: 0
    lazyPreloadingInstancesOnAwake: 1
    lazyPreloadingInitialDelay: 1
    lazyPreloadingInstancesPerPass: 2
    lazyPreloadingDelayBetweenPasses: 0.2
    enableAutoDespawn: 1
    despawnMode: 0
    despawnAfterHowManySeconds: 2
    despawnRandomRangeMin: 0
    despawnRandomRangeMax: 0
    notifications: 0
    enableInstantiateDelegates: 0
    enableDestroyDelegates: 0
    maxInstancesSpawnedAtOnce: 0
    totalNumberOfSpawns: 0
    totalNumberOfDespawns: 0
    timeSincePoolLastInitializedAnInstance: 0
    timeSincePoolLastSpawnedAnInstance: 0
    timeSincePoolLastDespawnedAnInstance: 0
    tab: 0
    instanceSpawnedProgressBar: 0
    instanceSpawnedProgressBarLerped: 0
    prefabTabIsOpen: 1
  - prefabToPool: {fileID: 1503768194972696, guid: e27f8df64a946427cb3719d0aab3e38c, type: 3}
    poolSizeOptions: 0
    poolSize: 5
    limitPoolSize: 10
    keepOrganized: 0
    recycleSpawnedObjects: 0
    resetScaleOnEverySpawn: 0
    spawnedItemScale: 0
    customSpawnScale: {x: 1, y: 1, z: 1}
    customSpawnScaleMin: {x: 0, y: 0, z: 0}
    customSpawnScaleMax: {x: 1, y: 1, z: 1}
    customSpawnScaleProportionalMin: 0
    customSpawnScaleProportionalMax: 1
    resetLayerOnEverySpawn: 0
    spawnedItemLayer: 0
    customSpawnLayer: 0
    useLazyPreloading: 0
    lazyPreloadingInstancesOnAwake: 1
    lazyPreloadingInitialDelay: 1
    lazyPreloadingInstancesPerPass: 2
    lazyPreloadingDelayBetweenPasses: 0.2
    enableAutoDespawn: 1
    despawnMode: 0
    despawnAfterHowManySeconds: 2
    despawnRandomRangeMin: 0
    despawnRandomRangeMax: 0
    notifications: 0
    enableInstantiateDelegates: 0
    enableDestroyDelegates: 0
    maxInstancesSpawnedAtOnce: 0
    totalNumberOfSpawns: 0
    totalNumberOfDespawns: 0
    timeSincePoolLastInitializedAnInstance: 0
    timeSincePoolLastSpawnedAnInstance: 0
    timeSincePoolLastDespawnedAnInstance: 0
    tab: 0
    instanceSpawnedProgressBar: 0
    instanceSpawnedProgressBarLerped: 0
    prefabTabIsOpen: 1
  spawnedObjects: []
  spawnedObjectsList: []
  tab: 0
  fixedSizeSpawnCount: 0
--- !u!4 &626838728
Transform:
  m_ObjectHideFlags: 0
  m_CorrespondingSourceObject: {fileID: 0}
  m_PrefabInstance: {fileID: 0}
  m_PrefabAsset: {fileID: 0}
  m_GameObject: {fileID: 626838726}
  m_LocalRotation: {x: 0, y: 0, z: 0, w: 1}
  m_LocalPosition: {x: 0, y: 0, z: 0}
  m_LocalScale: {x: 1, y: 1, z: 1}
  m_Children: []
  m_Father: {fileID: 0}
  m_RootOrder: 2
  m_LocalEulerAnglesHint: {x: 0, y: 0, z: 0}
--- !u!1 &939953272
GameObject:
  m_ObjectHideFlags: 0
  m_CorrespondingSourceObject: {fileID: 0}
  m_PrefabInstance: {fileID: 0}
  m_PrefabAsset: {fileID: 0}
  serializedVersion: 6
  m_Component:
  - component: {fileID: 939953273}
  m_Layer: 0
  m_Name: Spawn Point 2
  m_TagString: Untagged
  m_Icon: {fileID: 0}
  m_NavMeshLayer: 0
  m_StaticEditorFlags: 0
  m_IsActive: 1
--- !u!4 &939953273
Transform:
  m_ObjectHideFlags: 0
  m_CorrespondingSourceObject: {fileID: 0}
  m_PrefabInstance: {fileID: 0}
  m_PrefabAsset: {fileID: 0}
  m_GameObject: {fileID: 939953272}
  m_LocalRotation: {x: 0, y: 0, z: 0, w: 1}
  m_LocalPosition: {x: -10, y: 0, z: 0}
  m_LocalScale: {x: 1, y: 1, z: 1}
  m_Children: []
  m_Father: {fileID: 75961008}
  m_RootOrder: 1
  m_LocalEulerAnglesHint: {x: 0, y: 0, z: 0}
--- !u!1001 &997442591
PrefabInstance:
  m_ObjectHideFlags: 0
  serializedVersion: 2
  m_Modification:
    m_TransformParent: {fileID: 0}
    m_Modifications:
    - target: {fileID: 224801356208643134, guid: e13f0bdd5dead455fab21b728d842574, type: 3}
      propertyPath: m_Pivot.x
      value: 0
      objectReference: {fileID: 0}
    - target: {fileID: 224801356208643134, guid: e13f0bdd5dead455fab21b728d842574, type: 3}
      propertyPath: m_Pivot.y
      value: 0
      objectReference: {fileID: 0}
    - target: {fileID: 224801356208643134, guid: e13f0bdd5dead455fab21b728d842574, type: 3}
      propertyPath: m_RootOrder
      value: 5
      objectReference: {fileID: 0}
    - target: {fileID: 224801356208643134, guid: e13f0bdd5dead455fab21b728d842574, type: 3}
      propertyPath: m_AnchorMax.x
      value: 0
      objectReference: {fileID: 0}
    - target: {fileID: 224801356208643134, guid: e13f0bdd5dead455fab21b728d842574, type: 3}
      propertyPath: m_AnchorMax.y
      value: 0
      objectReference: {fileID: 0}
    - target: {fileID: 224801356208643134, guid: e13f0bdd5dead455fab21b728d842574, type: 3}
      propertyPath: m_AnchorMin.x
      value: 0
      objectReference: {fileID: 0}
    - target: {fileID: 224801356208643134, guid: e13f0bdd5dead455fab21b728d842574, type: 3}
      propertyPath: m_AnchorMin.y
      value: 0
      objectReference: {fileID: 0}
    - target: {fileID: 224801356208643134, guid: e13f0bdd5dead455fab21b728d842574, type: 3}
      propertyPath: m_SizeDelta.x
      value: 0
      objectReference: {fileID: 0}
    - target: {fileID: 224801356208643134, guid: e13f0bdd5dead455fab21b728d842574, type: 3}
      propertyPath: m_SizeDelta.y
      value: 0
      objectReference: {fileID: 0}
    - target: {fileID: 224801356208643134, guid: e13f0bdd5dead455fab21b728d842574, type: 3}
      propertyPath: m_LocalPosition.x
      value: 0
      objectReference: {fileID: 0}
    - target: {fileID: 224801356208643134, guid: e13f0bdd5dead455fab21b728d842574, type: 3}
      propertyPath: m_LocalPosition.y
      value: 0
      objectReference: {fileID: 0}
    - target: {fileID: 224801356208643134, guid: e13f0bdd5dead455fab21b728d842574, type: 3}
      propertyPath: m_LocalPosition.z
      value: 0
      objectReference: {fileID: 0}
    - target: {fileID: 224801356208643134, guid: e13f0bdd5dead455fab21b728d842574, type: 3}
      propertyPath: m_LocalRotation.w
      value: 1
      objectReference: {fileID: 0}
    - target: {fileID: 224801356208643134, guid: e13f0bdd5dead455fab21b728d842574, type: 3}
      propertyPath: m_LocalRotation.x
      value: 0
      objectReference: {fileID: 0}
    - target: {fileID: 224801356208643134, guid: e13f0bdd5dead455fab21b728d842574, type: 3}
      propertyPath: m_LocalRotation.y
      value: 0
      objectReference: {fileID: 0}
    - target: {fileID: 224801356208643134, guid: e13f0bdd5dead455fab21b728d842574, type: 3}
      propertyPath: m_LocalRotation.z
      value: 0
      objectReference: {fileID: 0}
    - target: {fileID: 224801356208643134, guid: e13f0bdd5dead455fab21b728d842574, type: 3}
      propertyPath: m_AnchoredPosition.x
      value: 0
      objectReference: {fileID: 0}
    - target: {fileID: 224801356208643134, guid: e13f0bdd5dead455fab21b728d842574, type: 3}
      propertyPath: m_AnchoredPosition.y
      value: 0
      objectReference: {fileID: 0}
    m_RemovedComponents: []
  m_SourcePrefab: {fileID: 100100000, guid: e13f0bdd5dead455fab21b728d842574, type: 3}
--- !u!1 &1037319661
GameObject:
  m_ObjectHideFlags: 0
  m_CorrespondingSourceObject: {fileID: 0}
  m_PrefabInstance: {fileID: 0}
  m_PrefabAsset: {fileID: 0}
  serializedVersion: 6
  m_Component:
  - component: {fileID: 1037319662}
  m_Layer: 0
  m_Name: Custom Local Position
  m_TagString: Untagged
  m_Icon: {fileID: 0}
  m_NavMeshLayer: 0
  m_StaticEditorFlags: 0
  m_IsActive: 1
--- !u!4 &1037319662
Transform:
  m_ObjectHideFlags: 0
  m_CorrespondingSourceObject: {fileID: 0}
  m_PrefabInstance: {fileID: 0}
  m_PrefabAsset: {fileID: 0}
  m_GameObject: {fileID: 1037319661}
  m_LocalRotation: {x: -0, y: -0, z: -0, w: 1}
  m_LocalPosition: {x: 30, y: 0, z: 0}
  m_LocalScale: {x: 1, y: 1, z: 1}
  m_Children: []
  m_Father: {fileID: 75961008}
  m_RootOrder: 4
  m_LocalEulerAnglesHint: {x: 0, y: 0, z: 0}
--- !u!1 &1085222124
GameObject:
  m_ObjectHideFlags: 0
  m_CorrespondingSourceObject: {fileID: 0}
  m_PrefabInstance: {fileID: 0}
  m_PrefabAsset: {fileID: 0}
  serializedVersion: 6
  m_Component:
  - component: {fileID: 1085222125}
  m_Layer: 0
  m_Name: Spawn Point 3
  m_TagString: Untagged
  m_Icon: {fileID: 0}
  m_NavMeshLayer: 0
  m_StaticEditorFlags: 0
  m_IsActive: 1
--- !u!4 &1085222125
Transform:
  m_ObjectHideFlags: 0
  m_CorrespondingSourceObject: {fileID: 0}
  m_PrefabInstance: {fileID: 0}
  m_PrefabAsset: {fileID: 0}
  m_GameObject: {fileID: 1085222124}
  m_LocalRotation: {x: -0, y: -0, z: -0, w: 1}
  m_LocalPosition: {x: 0, y: -10, z: 0}
  m_LocalScale: {x: 1, y: 1, z: 1}
  m_Children: []
  m_Father: {fileID: 75961008}
  m_RootOrder: 2
  m_LocalEulerAnglesHint: {x: 0, y: 0, z: 0}
--- !u!1 &1757323301
GameObject:
  m_ObjectHideFlags: 0
  m_CorrespondingSourceObject: {fileID: 0}
  m_PrefabInstance: {fileID: 0}
  m_PrefabAsset: {fileID: 0}
  serializedVersion: 6
  m_Component:
  - component: {fileID: 1757323303}
  - component: {fileID: 1757323302}
  - component: {fileID: 1757323304}
  m_Layer: 0
  m_Name: POOL DELEGATE EXAMPLES
  m_TagString: Untagged
  m_Icon: {fileID: 0}
  m_NavMeshLayer: 0
  m_StaticEditorFlags: 0
  m_IsActive: 1
--- !u!114 &1757323302
MonoBehaviour:
  m_ObjectHideFlags: 0
  m_CorrespondingSourceObject: {fileID: 0}
  m_PrefabInstance: {fileID: 0}
  m_PrefabAsset: {fileID: 0}
  m_GameObject: {fileID: 1757323301}
  m_Enabled: 1
  m_EditorHideFlags: 0
  m_Script: {fileID: 11500000, guid: 646bba52ba6d34daca8783ce66bf884a, type: 3}
  m_Name: 
  m_EditorClassIdentifier: 
  poolName: Spawner Test Pool
  debugSpawnedInstances: 1
  debugDespawnedInstances: 1
--- !u!4 &1757323303
Transform:
  m_ObjectHideFlags: 0
  m_CorrespondingSourceObject: {fileID: 0}
  m_PrefabInstance: {fileID: 0}
  m_PrefabAsset: {fileID: 0}
  m_GameObject: {fileID: 1757323301}
  m_LocalRotation: {x: 0, y: 0, z: 0, w: 1}
  m_LocalPosition: {x: -11.400824, y: 4.862364, z: 7.3775845}
  m_LocalScale: {x: 1, y: 1, z: 1}
  m_Children: []
  m_Father: {fileID: 0}
  m_RootOrder: 4
  m_LocalEulerAnglesHint: {x: 0, y: 0, z: 0}
--- !u!114 &1757323304
MonoBehaviour:
  m_ObjectHideFlags: 0
  m_CorrespondingSourceObject: {fileID: 0}
  m_PrefabInstance: {fileID: 0}
  m_PrefabAsset: {fileID: 0}
  m_GameObject: {fileID: 1757323301}
  m_Enabled: 1
  m_EditorHideFlags: 0
  m_Script: {fileID: 11500000, guid: 0fac9b17530b742e8878e71473253052, type: 3}
  m_Name: 
  m_EditorClassIdentifier: 
  prefabToOverride: {fileID: 1503768194972696, guid: 7392b9bb77f08496e90d17a9386abb81, type: 3}
  useGlobalPoolKitOverride: 0
  forcePoolToAllowDelegates: 1
  debugSpawnedInstances: 1
  debugDespawnedInstances: 1
  showDebugMessages: 1
--- !u!1 &1908726146
GameObject:
  m_ObjectHideFlags: 0
  m_CorrespondingSourceObject: {fileID: 0}
  m_PrefabInstance: {fileID: 0}
  m_PrefabAsset: {fileID: 0}
  serializedVersion: 6
  m_Component:
  - component: {fileID: 1908726147}
  m_Layer: 0
  m_Name: Scene
  m_TagString: Untagged
  m_Icon: {fileID: 0}
  m_NavMeshLayer: 0
  m_StaticEditorFlags: 0
  m_IsActive: 1
--- !u!4 &1908726147
Transform:
  m_ObjectHideFlags: 0
  m_CorrespondingSourceObject: {fileID: 0}
  m_PrefabInstance: {fileID: 0}
  m_PrefabAsset: {fileID: 0}
  m_GameObject: {fileID: 1908726146}
  m_LocalRotation: {x: 0, y: 0, z: 0, w: 1}
  m_LocalPosition: {x: 0, y: 0, z: 0}
  m_LocalScale: {x: 1, y: 1, z: 1}
  m_Children:
  - {fileID: 499883994}
  - {fileID: 217715315}
  - {fileID: 496164100}
  m_Father: {fileID: 0}
  m_RootOrder: 0
  m_LocalEulerAnglesHint: {x: 0, y: 0, z: 0}
