%YAML 1.1
%TAG !u! tag:unity3d.com,2011:
--- !u!114 &11400000
MonoBehaviour:
  m_ObjectHideFlags: 0
  m_CorrespondingSourceObject: {fileID: 0}
  m_PrefabInstance: {fileID: 0}
  m_PrefabAsset: {fileID: 0}
  m_GameObject: {fileID: 0}
  m_Enabled: 1
  m_EditorHideFlags: 0
  m_Script: {fileID: 11500000, guid: 9847d110d7bf2431385093e58553c2fe, type: 3}
  m_Name: BasicShoe
  m_EditorClassIdentifier: 
  Replacable: {fileID: 382770131353703092, guid: f27c86bb90f6c4510a7645a499993f4b, type: 3}
